{
    "name":"Postman",
    "bin":"postman",
    "description":"Postman is a collaboration platform for API development. Postman's features simplify each step of building an API and streamline collaboration so you can create better APIs—faster.",
    "installation":{
        "install_methods":[
            "src"
        ],
        "src_package_info":{
            "source":"tar",
            "tar_extension":"tar.gz",
            "tar_url":"https://dl.pstmn.io/download/latest/linux64",
            "tar_version_cmd":"echo latest",
            "icon_dest":"app/resources/app/assets/icon.png",
            "desktop_shortcut":"postman.desktop",
            "desktop_shortcut_exec":"postman",
            "build_commands":[
                "mkdir -p ${HOME}/.local/bin;",
                "ln -sf $(realpath -s ./Postman) ${HOME}/.local/bin/postman"
            ]
        }
    }
}